{
  "store" : {
    "name": "Ma Sarada Medico",
    "address": {
      "lines": [
        "3, Harekrishnanagar"
      ],
      "city": "Howrah",
      "pincode": 711109,
      "state": "West Bengal"
    },
    "phone": 9433461250,
    "gstin": "76723467HS76327"
  },
  "order": {
    "num": 10,
    "updatedAt": "12th July 2018",
    "products": [
      {
        "name": "RANTAC D Injection",
        "hsn": "897845",
        "quantity": 2,
        "rate": 3200.00,
        "subTotal": 6400.00,
        "taxes": {
          "cgst" : {
            "percent": 5,
            "amount": 320
          },
          "sgst": {
            "percent": 5,
            "amount": 320
          }
        },
        "total": 7040
      },
      {
        "name": "Amlokyne AT",
        "hsn": "8978",
        "quantity": 10,
        "rate": 100,
        "subTotal": 1000,
        "taxes": {
          "cgst": {
            "percent": 5,
            "amount": 50
          },
          "sgst": {
            "percent": 5,
            "amount": 50
          }
        },
        "total": 1100
      },
      {
        "name": "Amlokyne AT",
        "hsn": "8978",
        "quantity": 10,
        "rate": 100,
        "subTotal": 1000,
        "taxes": {
          "cgst": {
            "percent": 5,
            "amount": 50
          },
          "sgst": {
            "percent": 5,
            "amount": 50
          }
        },
        "total": 1100
      }
    ],
    "person": {
      "name": "Diptajit Basak",
      "address": {
        "lines": [
          "Baksara, North Baksara"
        ],
        "city": "Howrah",
        "pincode": 711110
      },
      "contacts": {
        "phones": [
          9632473483
        ]
      }
    },
    "price": 7400,
    "tax": 740,
    "total": 8140
  }
}